M48
; DRILL file {KiCad (5.1.4)-1} date 2/11/2020 9:58:15 PM
; FORMAT={-:-/ absolute / inch / decimal}
; #@! TF.CreationDate,2020-02-11T21:58:15-08:00
; #@! TF.GenerationSoftware,Kicad,Pcbnew,(5.1.4)-1
; #@! TF.FileFunction,NonPlated,1,2,NPTH
FMAT,2
INCH
T1C0.0866
T2C0.1260
%
G90
G05
T1
X7.415Y-2.65
T2
X2.7559Y-5.3937
X2.7559Y-2.6378
X7.874Y-5.3937
X7.874Y-2.6378
T0
M30
