PCBNEW-LibModule-V1  
# encoding utf-8
Units mm
$INDEX
CUI_PJ-058AH
$EndINDEX
$MODULE CUI_PJ-058AH
Po 0 0 0 15 00000000 00000000 ~~
Li CUI_PJ-058AH
Cd 
Sc 00000000
At STD
Op 0 0 0
.SolderMask 0
.SolderPaste 0
T0 1.85003 -6.76511 1.00002 1.00002 0 0.05 N V 21 "CUI_PJ-058AH"
T1 2.48604 5.77742 1.00042 1.00042 0 0.05 N V 21 "VAL**"
DS 0.5 1.75 -0.5 1.75 0.0001 28
DS -0.5 1.75 -0.5 -1.75 0.0001 28
DS -0.5 -1.75 0.5 -1.75 0.0001 28
DS 0.5 -1.75 0.5 1.75 0.0001 28
DS 6.5 1.5 5.5 1.5 0.0001 28
DS 5.5 1.5 5.5 -1.5 0.0001 28
DS 5.5 -1.5 6.5 -1.5 0.0001 28
DS 6.5 -1.5 6.5 1.5 0.0001 28
DS 1.5 -4.2 1.5 -5.2 0.0001 28
DS 1.5 -5.2 4.5 -5.2 0.0001 28
DS 4.5 -5.2 4.5 -4.2 0.0001 28
DS 4.5 -4.2 1.5 -4.2 0.0001 28
DS -0.7 -4.5 14.5 -4.5 0.127 27
DS 14.5 -4.5 14.5 4.5 0.127 27
DS 14.5 4.5 -0.7 4.5 0.127 27
DS -0.7 4.5 -0.7 -4.5 0.127 27
DS 14.5 -4.5 14.5 4.5 0.127 21
DS 14.5 4.5 -0.7 4.5 0.127 21
DS -0.7 -4.5 0.45 -4.5 0.127 21
DS -0.7 4.5 -0.7 2.65 0.127 21
DS 5.55 -4.5 14.5 -4.5 0.127 21
DS -0.7 -2.55 -0.7 -4.5 0.127 21
DS -1 -4.75 0.45 -4.75 0.05 26
DS 0.45 -4.75 0.45 -6.1 0.05 26
DS 0.45 -6.1 5.55 -6.1 0.05 26
DS 5.55 -6.1 5.55 -4.75 0.05 26
DS 5.55 -4.75 14.8 -4.75 0.05 26
DS 14.8 -4.75 14.8 4.75 0.05 26
DS 14.8 4.75 -1 4.75 0.05 26
DS -1 4.75 -1 2.35 0.05 26
DC -2 0 -1.8 0 0.4 21
DS -1 -2.25 -1 -4.75 0.05 26
DS -1 -2.25 -1.55 -2.25 0.05 26
DS -1.55 -2.25 -1.55 2.35 0.05 26
DS -1.55 2.35 -1 2.35 0.05 26
$PAD
Sh "1" O 5 2.5 0 0 900
Dr 1 0 0
At STD N 00C0FFFF
.SolderMask 0
Ne 0 ""
Po 0 0
$EndPAD
$PAD
Sh "2" O 4.5 2.25 0 0 900
Dr 1 0 0
At STD N 00C0FFFF
.SolderMask 0
Ne 0 ""
Po 6 0
$EndPAD
$PAD
Sh "3" O 4.5 2.25 0 0 1800
Dr 1 0 0
At STD N 00C0FFFF
.SolderMask 0
Ne 0 ""
Po 3 -4.7
$EndPAD
$PAD
Sh "Hole" C 2.2 2.2 0 0 0
Dr 2.2 0 0
At HOLE N 00E0FFFF
Po 10.5 0
$EndPAD
$EndMODULE CUI_PJ-058AH
