EESchema Schematic File Version 4
LIBS:PowerSupply-cache
EELAYER 30 0
EELAYER END
$Descr B 17000 11000
encoding utf-8
Sheet 1 1
Title "Power Supply and Motor Control Board"
Date "2020-01-30"
Rev "002"
Comp "Retroglobot"
Comment1 ""
Comment2 ""
Comment3 ""
Comment4 ""
$EndDescr
Text Notes 2900 1350 2    100  ~ 0
Battery In
Text Notes 5400 1300 2    100  ~ 0
Power Out Connections\n
$Comp
L Connector:Screw_Terminal_01x02 J2
U 1 1 5E27415D
P 4650 1750
F 0 "J2" H 4568 1875 50  0000 C CNN
F 1 "Screw_Terminal_01x02" H 4568 1516 50  0001 C CNN
F 2 "TerminalBlock:TerminalBlock_bornier-2_P5.08mm" H 4650 1750 50  0001 C CNN
F 3 "~" H 4650 1750 50  0001 C CNN
	1    4650 1750
	-1   0    0    -1  
$EndComp
$Comp
L power:GND #PWR0119
U 1 1 5E278779
P 4950 2000
F 0 "#PWR0119" H 4950 1750 50  0001 C CNN
F 1 "GND" H 4955 1827 50  0000 C CNN
F 2 "" H 4950 2000 50  0001 C CNN
F 3 "" H 4950 2000 50  0001 C CNN
	1    4950 2000
	-1   0    0    -1  
$EndComp
Wire Wire Line
	4850 1850 4950 1850
$Comp
L power:+5V #PWR0118
U 1 1 5E2E6B84
P 4950 1600
F 0 "#PWR0118" H 4950 1450 50  0001 C CNN
F 1 "+5V" H 4965 1773 50  0000 C CNN
F 2 "" H 4950 1600 50  0001 C CNN
F 3 "" H 4950 1600 50  0001 C CNN
	1    4950 1600
	-1   0    0    -1  
$EndComp
Wire Wire Line
	4950 1600 4950 1750
Wire Wire Line
	4950 1750 4850 1750
Wire Wire Line
	4950 1850 4950 2000
Text Notes 4750 1000 2    200  ~ 0
Power Connections
Text Notes 3500 8750 2    100  ~ 0
I2C Connections
Wire Wire Line
	3000 9050 2800 9050
Wire Wire Line
	2800 8950 3000 8950
Text Label 2800 9050 2    50   ~ 0
I2C_SCL
Text Label 2800 8950 2    50   ~ 0
I2C_SDA
$Comp
L Connector:Screw_Terminal_01x02 J6
U 1 1 5E31CF3D
P 3200 8950
F 0 "J6" H 3280 8896 50  0000 L CNN
F 1 "Screw_Terminal_01x02" H 3280 8851 50  0001 L CNN
F 2 "TerminalBlock:TerminalBlock_bornier-2_P5.08mm" H 3200 8950 50  0001 C CNN
F 3 "~" H 3200 8950 50  0001 C CNN
	1    3200 8950
	1    0    0    -1  
$EndComp
Text Label 8650 8950 2    50   ~ 0
neoPixels
Wire Wire Line
	10050 8850 10050 8700
Text Notes 10900 8000 2    200  ~ 0
NeoPixels
Text Notes 15200 1100 2    200  ~ 0
Mounting Holes
$Comp
L Mechanical:MountingHole H3
U 1 1 5E33B8DF
P 14350 1600
F 0 "H3" H 14450 1600 50  0000 L CNN
F 1 "MountingHole" H 14450 1555 50  0001 L CNN
F 2 "MountingHole:MountingHole_3.2mm_M3" H 14350 1600 50  0001 C CNN
F 3 "~" H 14350 1600 50  0001 C CNN
	1    14350 1600
	1    0    0    -1  
$EndComp
$Comp
L Mechanical:MountingHole H4
U 1 1 5E33B55C
P 14350 2200
F 0 "H4" H 14450 2200 50  0000 L CNN
F 1 "MountingHole" H 14450 2155 50  0001 L CNN
F 2 "MountingHole:MountingHole_3.2mm_M3" H 14350 2200 50  0001 C CNN
F 3 "~" H 14350 2200 50  0001 C CNN
	1    14350 2200
	1    0    0    -1  
$EndComp
$Comp
L Mechanical:MountingHole H2
U 1 1 5E33B331
P 13650 2200
F 0 "H2" H 13750 2200 50  0000 L CNN
F 1 "MountingHole" H 13750 2155 50  0001 L CNN
F 2 "MountingHole:MountingHole_3.2mm_M3" H 13650 2200 50  0001 C CNN
F 3 "~" H 13650 2200 50  0001 C CNN
	1    13650 2200
	1    0    0    -1  
$EndComp
$Comp
L Mechanical:MountingHole H1
U 1 1 5E33A9F0
P 13650 1600
F 0 "H1" H 13750 1600 50  0000 L CNN
F 1 "MountingHole" H 13750 1555 50  0001 L CNN
F 2 "MountingHole:MountingHole_3.2mm_M3" H 13650 1600 50  0001 C CNN
F 3 "~" H 13650 1600 50  0001 C CNN
	1    13650 1600
	1    0    0    -1  
$EndComp
$Comp
L power:VDD #PWR0130
U 1 1 5E4AA489
P 11700 5350
F 0 "#PWR0130" H 11700 5200 50  0001 C CNN
F 1 "VDD" H 11717 5523 50  0000 C CNN
F 2 "" H 11700 5350 50  0001 C CNN
F 3 "" H 11700 5350 50  0001 C CNN
	1    11700 5350
	1    0    0    -1  
$EndComp
Text Notes 13100 6400 2    50   ~ 0
Blue\nYellow\nGreen\nRed
Wire Wire Line
	12450 6400 12200 6400
Wire Wire Line
	12200 6300 12450 6300
Wire Wire Line
	12450 6200 12200 6200
Wire Wire Line
	12200 6100 12450 6100
$Comp
L Connector:Screw_Terminal_01x04 J10
U 1 1 5E495BEA
P 12650 6200
F 0 "J10" H 12730 6146 50  0000 L CNN
F 1 "Screw_Terminal_01x04" H 12730 6101 50  0001 L CNN
F 2 "TerminalBlock:TerminalBlock_bornier-4_P5.08mm" H 12650 6200 50  0001 C CNN
F 3 "~" H 12650 6200 50  0001 C CNN
	1    12650 6200
	1    0    0    -1  
$EndComp
Wire Wire Line
	11050 6300 11300 6300
Text Label 11050 6300 2    50   ~ 0
leftDir
Wire Wire Line
	11050 6200 11300 6200
Text Label 11050 6200 2    50   ~ 0
step
Connection ~ 10350 6100
Wire Wire Line
	10150 6100 10350 6100
Text Label 10150 6100 2    50   ~ 0
~leftEnable
Wire Wire Line
	10950 5900 11300 5900
Text Label 10950 5900 2    50   ~ 0
~leftSleep
Wire Wire Line
	10350 6100 10350 5750
Wire Wire Line
	11300 6100 10350 6100
Wire Wire Line
	11050 5800 11050 5750
Wire Wire Line
	11300 5800 11050 5800
Connection ~ 11050 5400
Wire Wire Line
	10350 5400 10350 5450
Wire Wire Line
	11050 5400 10350 5400
Wire Wire Line
	11700 5400 11700 5500
Connection ~ 11700 5400
Wire Wire Line
	11050 5400 11700 5400
Wire Wire Line
	11050 5450 11050 5400
$Comp
L Device:R R9
U 1 1 5E495BD0
P 10350 5600
F 0 "R9" H 10420 5646 50  0000 L CNN
F 1 "100k" H 10420 5555 50  0000 L CNN
F 2 "Resistor_SMD:R_0805_2012Metric_Pad1.15x1.40mm_HandSolder" V 10280 5600 50  0001 C CNN
F 3 "~" H 10350 5600 50  0001 C CNN
	1    10350 5600
	1    0    0    -1  
$EndComp
$Comp
L Device:R R8
U 1 1 5E495BCA
P 11050 5600
F 0 "R8" H 11120 5646 50  0000 L CNN
F 1 "100k" H 11120 5555 50  0000 L CNN
F 2 "Resistor_SMD:R_0805_2012Metric_Pad1.15x1.40mm_HandSolder" V 10980 5600 50  0001 C CNN
F 3 "~" H 11050 5600 50  0001 C CNN
	1    11050 5600
	1    0    0    -1  
$EndComp
NoConn ~ 11300 6700
NoConn ~ 11300 6600
NoConn ~ 11300 6500
Wire Wire Line
	11900 5350 11900 5500
$Comp
L power:+12V #PWR0127
U 1 1 5E495BC0
P 11900 5350
F 0 "#PWR0127" H 11900 5200 50  0001 C CNN
F 1 "+12V" H 11915 5523 50  0000 C CNN
F 2 "" H 11900 5350 50  0001 C CNN
F 3 "" H 11900 5350 50  0001 C CNN
	1    11900 5350
	1    0    0    -1  
$EndComp
Wire Wire Line
	11700 5350 11700 5400
Wire Wire Line
	11800 7100 11900 7100
Connection ~ 11800 7100
Wire Wire Line
	11800 7150 11800 7100
Wire Wire Line
	11900 7100 11900 7000
Wire Wire Line
	11700 7100 11800 7100
Wire Wire Line
	11700 7000 11700 7100
$Comp
L power:GND #PWR0126
U 1 1 5E495BAD
P 11800 7150
F 0 "#PWR0126" H 11800 6900 50  0001 C CNN
F 1 "GND" H 11805 6977 50  0000 C CNN
F 2 "" H 11800 7150 50  0001 C CNN
F 3 "" H 11800 7150 50  0001 C CNN
	1    11800 7150
	1    0    0    -1  
$EndComp
$Comp
L Driver_Motor:Pololu_Breakout_A4988 A3
U 1 1 5E495BA7
P 11700 6200
F 0 "A3" H 12050 6850 50  0000 C CNN
F 1 "Pololu_Breakout_A4988" V 11800 6150 50  0000 C CNN
F 2 "Module:Pololu_Breakout-16_15.2x20.3mm" H 11975 5450 50  0001 L CNN
F 3 "https://www.pololu.com/product/2980/pictures" H 11800 5900 50  0001 C CNN
	1    11700 6200
	1    0    0    -1  
$EndComp
$Comp
L power:VDD #PWR0131
U 1 1 5E4AAD6A
P 7850 5350
F 0 "#PWR0131" H 7850 5200 50  0001 C CNN
F 1 "VDD" H 7867 5523 50  0000 C CNN
F 2 "" H 7850 5350 50  0001 C CNN
F 3 "" H 7850 5350 50  0001 C CNN
	1    7850 5350
	1    0    0    -1  
$EndComp
Text Notes 9250 6400 2    50   ~ 0
Red\nGreen\nYellow\nBlue
Wire Wire Line
	8600 6400 8350 6400
Wire Wire Line
	8350 6300 8600 6300
Wire Wire Line
	8600 6200 8350 6200
Wire Wire Line
	8350 6100 8600 6100
$Comp
L Connector:Screw_Terminal_01x04 J9
U 1 1 5E45C768
P 8800 6200
F 0 "J9" H 8880 6146 50  0000 L CNN
F 1 "Screw_Terminal_01x04" H 8880 6101 50  0001 L CNN
F 2 "TerminalBlock:TerminalBlock_bornier-4_P5.08mm" H 8800 6200 50  0001 C CNN
F 3 "~" H 8800 6200 50  0001 C CNN
	1    8800 6200
	1    0    0    -1  
$EndComp
Wire Wire Line
	7200 6300 7450 6300
Text Label 7200 6300 2    50   ~ 0
rightDir
Wire Wire Line
	7200 6200 7450 6200
Text Label 7200 6200 2    50   ~ 0
step
Connection ~ 6500 6100
Wire Wire Line
	6300 6100 6500 6100
Text Label 6300 6100 2    50   ~ 0
~rightEnable
Wire Wire Line
	7100 5900 7450 5900
Text Label 7100 5900 2    50   ~ 0
~rightSleep
Wire Wire Line
	6500 6100 6500 5750
Wire Wire Line
	7450 6100 6500 6100
Wire Wire Line
	7200 5800 7200 5750
Wire Wire Line
	7450 5800 7200 5800
Connection ~ 7200 5400
Wire Wire Line
	6500 5400 6500 5450
Wire Wire Line
	7200 5400 6500 5400
Wire Wire Line
	7850 5400 7850 5500
Connection ~ 7850 5400
Wire Wire Line
	7200 5400 7850 5400
Wire Wire Line
	7200 5450 7200 5400
$Comp
L Device:R R7
U 1 1 5E440660
P 6500 5600
F 0 "R7" H 6570 5646 50  0000 L CNN
F 1 "100k" H 6570 5555 50  0000 L CNN
F 2 "Resistor_SMD:R_0805_2012Metric_Pad1.15x1.40mm_HandSolder" V 6430 5600 50  0001 C CNN
F 3 "~" H 6500 5600 50  0001 C CNN
	1    6500 5600
	1    0    0    -1  
$EndComp
$Comp
L Device:R R6
U 1 1 5E43FA6B
P 7200 5600
F 0 "R6" H 7270 5646 50  0000 L CNN
F 1 "100k" H 7270 5555 50  0000 L CNN
F 2 "Resistor_SMD:R_0805_2012Metric_Pad1.15x1.40mm_HandSolder" V 7130 5600 50  0001 C CNN
F 3 "~" H 7200 5600 50  0001 C CNN
	1    7200 5600
	1    0    0    -1  
$EndComp
NoConn ~ 7450 6700
NoConn ~ 7450 6600
NoConn ~ 7450 6500
Wire Wire Line
	8050 5350 8050 5500
$Comp
L power:+12V #PWR0125
U 1 1 5E424096
P 8050 5350
F 0 "#PWR0125" H 8050 5200 50  0001 C CNN
F 1 "+12V" H 8065 5523 50  0000 C CNN
F 2 "" H 8050 5350 50  0001 C CNN
F 3 "" H 8050 5350 50  0001 C CNN
	1    8050 5350
	1    0    0    -1  
$EndComp
Wire Wire Line
	7850 5350 7850 5400
Wire Wire Line
	7950 7100 8050 7100
Connection ~ 7950 7100
Wire Wire Line
	7950 7150 7950 7100
Wire Wire Line
	8050 7100 8050 7000
Wire Wire Line
	7850 7100 7950 7100
Wire Wire Line
	7850 7000 7850 7100
$Comp
L power:GND #PWR0123
U 1 1 5E3FF0FE
P 7950 7150
F 0 "#PWR0123" H 7950 6900 50  0001 C CNN
F 1 "GND" H 7955 6977 50  0000 C CNN
F 2 "" H 7950 7150 50  0001 C CNN
F 3 "" H 7950 7150 50  0001 C CNN
	1    7950 7150
	1    0    0    -1  
$EndComp
$Comp
L Driver_Motor:Pololu_Breakout_A4988 A2
U 1 1 5E31AA1B
P 7850 6200
F 0 "A2" H 8200 6850 50  0000 C CNN
F 1 "Pololu_Breakout_A4988" V 7950 6150 50  0000 C CNN
F 2 "Module:Pololu_Breakout-16_15.2x20.3mm" H 8125 5450 50  0001 L CNN
F 3 "https://www.pololu.com/product/2980/pictures" H 7950 5900 50  0001 C CNN
	1    7850 6200
	1    0    0    -1  
$EndComp
Text Label 2350 6500 2    50   ~ 0
rightDir
Text Label 2350 6300 2    50   ~ 0
step
Text Label 2350 6700 2    50   ~ 0
~rightEnable
Text Label 2350 6600 2    50   ~ 0
~rightSleep
Wire Wire Line
	2950 4900 2950 5100
Wire Wire Line
	3150 4900 3150 5100
$Comp
L power:VDD #PWR0128
U 1 1 5E49C97F
P 3150 4900
F 0 "#PWR0128" H 3150 4750 50  0001 C CNN
F 1 "VDD" H 3167 5073 50  0000 C CNN
F 2 "" H 3150 4900 50  0001 C CNN
F 3 "" H 3150 4900 50  0001 C CNN
	1    3150 4900
	1    0    0    -1  
$EndComp
Wire Wire Line
	3100 7200 3150 7200
Connection ~ 3100 7200
Wire Wire Line
	3100 7250 3100 7200
Wire Wire Line
	3150 7200 3150 7100
Wire Wire Line
	3050 7200 3100 7200
Wire Wire Line
	3050 7100 3050 7200
$Comp
L power:GND #PWR0124
U 1 1 5E3FFE9C
P 3100 7250
F 0 "#PWR0124" H 3100 7000 50  0001 C CNN
F 1 "GND" H 3105 7077 50  0000 C CNN
F 2 "" H 3100 7250 50  0001 C CNN
F 3 "" H 3100 7250 50  0001 C CNN
	1    3100 7250
	1    0    0    -1  
$EndComp
Wire Wire Line
	3750 6600 3550 6600
Wire Wire Line
	3550 6500 3750 6500
Text Label 3750 6600 0    50   ~ 0
I2C_SCL
Text Label 3750 6500 0    50   ~ 0
I2C_SDA
$Comp
L MCU_Module:Arduino_Nano_v3.x A1
U 1 1 5E318BF5
P 3050 6100
F 0 "A1" H 3400 7050 50  0000 C CNN
F 1 "Arduino_Nano_v3.x" V 3050 6000 50  0000 C CNN
F 2 "Module:Arduino_Nano" H 3200 5150 50  0001 L CNN
F 3 "http://www.mouser.com/pdfdocs/Gravitech_Arduino_Nano3_0.pdf" H 3050 5100 50  0001 C CNN
	1    3050 6100
	1    0    0    -1  
$EndComp
Text Label 2350 6100 2    50   ~ 0
~leftEnable
Text Label 2350 6000 2    50   ~ 0
~leftSleep
Text Label 2350 5900 2    50   ~ 0
leftDir
Text Label 2350 5800 2    50   ~ 0
neoPixels
Wire Wire Line
	2350 5900 2550 5900
Wire Wire Line
	2550 6000 2350 6000
Wire Wire Line
	2350 6100 2550 6100
Wire Wire Line
	2550 6300 2350 6300
Wire Wire Line
	2550 6500 2350 6500
Wire Wire Line
	2350 6600 2550 6600
Wire Wire Line
	2550 6700 2350 6700
Text Notes 10700 1000 2    200  ~ 0
Power Supply
$Comp
L Device:C C4
U 1 1 5E249BD6
P 9650 1700
F 0 "C4" V 9800 1600 50  0000 C CNN
F 1 "0.1uF" V 9800 1800 50  0000 C CNN
F 2 "Capacitor_SMD:C_0805_2012Metric_Pad1.15x1.40mm_HandSolder" H 9688 1550 50  0001 C CNN
F 3 "~" H 9650 1700 50  0001 C CNN
	1    9650 1700
	0    1    1    0   
$EndComp
Wire Wire Line
	11950 2350 11950 2800
Wire Wire Line
	9300 2800 11950 2800
Connection ~ 6700 2150
Wire Wire Line
	6700 2250 6700 2150
$Comp
L power:GND #PWR0108
U 1 1 5E2BEB3F
P 6700 2250
F 0 "#PWR0108" H 6700 2000 50  0001 C CNN
F 1 "GND" H 6705 2077 50  0000 C CNN
F 2 "" H 6700 2250 50  0001 C CNN
F 3 "" H 6700 2250 50  0001 C CNN
	1    6700 2250
	1    0    0    -1  
$EndComp
Connection ~ 7200 2150
Wire Wire Line
	6700 2150 7200 2150
Connection ~ 7200 1600
Wire Wire Line
	6700 1600 7200 1600
Wire Wire Line
	7200 2150 7700 2150
Connection ~ 7700 1600
Wire Wire Line
	7200 1600 7700 1600
Wire Wire Line
	10450 1600 10700 1600
Wire Wire Line
	10700 2250 11150 2250
Connection ~ 10700 2250
Wire Wire Line
	10700 1600 11150 1600
Connection ~ 10700 1600
Wire Wire Line
	11150 2250 11600 2250
Wire Wire Line
	11150 1600 11600 1600
Connection ~ 11600 1600
Wire Wire Line
	11950 2800 11950 2950
Connection ~ 11950 2800
Wire Wire Line
	9300 1800 9100 1800
Wire Wire Line
	9300 2800 9300 1800
Connection ~ 11950 1600
Wire Wire Line
	11950 1600 11950 2050
Wire Wire Line
	11950 1600 11600 1600
Wire Wire Line
	11950 1500 11950 1600
$Comp
L power:+5V #PWR0107
U 1 1 5E248799
P 11950 1500
F 0 "#PWR0107" H 11950 1350 50  0001 C CNN
F 1 "+5V" H 11965 1673 50  0000 C CNN
F 2 "" H 11950 1500 50  0001 C CNN
F 3 "" H 11950 1500 50  0001 C CNN
	1    11950 1500
	1    0    0    -1  
$EndComp
$Comp
L Device:R R2
U 1 1 5E24A392
P 11950 2200
F 0 "R2" H 12020 2246 50  0000 L CNN
F 1 "54.9k" H 12020 2155 50  0000 L CNN
F 2 "Resistor_SMD:R_0805_2012Metric_Pad1.15x1.40mm_HandSolder" V 11880 2200 50  0001 C CNN
F 3 "~" H 11950 2200 50  0001 C CNN
F 4 "1%" H 12200 2250 50  0000 C CNN "Tolerance"
	1    11950 2200
	1    0    0    -1  
$EndComp
$Comp
L Device:R R3
U 1 1 5E24A8F4
P 11950 3100
F 0 "R3" H 12020 3146 50  0000 L CNN
F 1 "10k" H 12020 3055 50  0000 L CNN
F 2 "Resistor_SMD:R_0805_2012Metric_Pad1.15x1.40mm_HandSolder" V 11880 3100 50  0001 C CNN
F 3 "~" H 11950 3100 50  0001 C CNN
F 4 "1%" H 12200 3150 50  0000 C CNN "Tolerance"
	1    11950 3100
	1    0    0    -1  
$EndComp
$Comp
L power:GND #PWR0106
U 1 1 5E267484
P 11950 3400
F 0 "#PWR0106" H 11950 3150 50  0001 C CNN
F 1 "GND" H 11955 3227 50  0000 C CNN
F 2 "" H 11950 3400 50  0001 C CNN
F 3 "" H 11950 3400 50  0001 C CNN
	1    11950 3400
	1    0    0    -1  
$EndComp
Wire Wire Line
	11950 3400 11950 3250
Wire Wire Line
	6700 2000 6700 2150
Wire Wire Line
	7200 2000 7200 2150
Wire Wire Line
	7700 2000 7700 2150
$Comp
L Device:C C1
U 1 1 5E26A92E
P 6700 1850
F 0 "C1" H 6815 1896 50  0000 L CNN
F 1 "22uF" H 6815 1805 50  0000 L CNN
F 2 "Capacitor_SMD:C_1210_3225Metric_Pad1.42x2.65mm_HandSolder" H 6738 1700 50  0001 C CNN
F 3 "~" H 6700 1850 50  0001 C CNN
	1    6700 1850
	1    0    0    -1  
$EndComp
$Comp
L Device:C C2
U 1 1 5E26A928
P 7200 1850
F 0 "C2" H 7315 1896 50  0000 L CNN
F 1 "22uF" H 7315 1805 50  0000 L CNN
F 2 "Capacitor_SMD:C_1210_3225Metric_Pad1.42x2.65mm_HandSolder" H 7238 1700 50  0001 C CNN
F 3 "~" H 7200 1850 50  0001 C CNN
	1    7200 1850
	1    0    0    -1  
$EndComp
$Comp
L Device:C C3
U 1 1 5E26A922
P 7700 1850
F 0 "C3" H 7815 1896 50  0000 L CNN
F 1 "0.1uF" H 7815 1805 50  0000 L CNN
F 2 "Capacitor_SMD:C_0805_2012Metric_Pad1.15x1.40mm_HandSolder" H 7738 1700 50  0001 C CNN
F 3 "~" H 7700 1850 50  0001 C CNN
	1    7700 1850
	1    0    0    -1  
$EndComp
Connection ~ 11150 2250
Wire Wire Line
	11600 2000 11600 2250
Wire Wire Line
	10700 2250 10700 2350
Wire Wire Line
	11150 2000 11150 2250
Wire Wire Line
	10700 2000 10700 2250
$Comp
L power:GND #PWR0105
U 1 1 5E264CD7
P 10700 2350
F 0 "#PWR0105" H 10700 2100 50  0001 C CNN
F 1 "GND" H 10705 2177 50  0000 C CNN
F 2 "" H 10700 2350 50  0001 C CNN
F 3 "" H 10700 2350 50  0001 C CNN
	1    10700 2350
	1    0    0    -1  
$EndComp
Connection ~ 11150 1600
Wire Wire Line
	11600 1700 11600 1600
Wire Wire Line
	11150 1700 11150 1600
Connection ~ 10000 1600
Wire Wire Line
	10150 1600 10000 1600
Wire Wire Line
	10700 1700 10700 1600
Wire Wire Line
	9500 1700 9100 1700
Wire Wire Line
	10000 1700 9800 1700
Wire Wire Line
	10000 1600 10000 1700
Wire Wire Line
	9100 1600 10000 1600
Wire Wire Line
	8050 1800 8300 1800
Wire Wire Line
	8050 1400 8050 1800
Wire Wire Line
	8050 950  8050 1100
Wire Wire Line
	6700 1400 6700 1600
Wire Wire Line
	8300 1600 7700 1600
Connection ~ 6700 1600
Wire Wire Line
	7700 1700 7700 1600
Wire Wire Line
	7200 1700 7200 1600
Wire Wire Line
	6700 1700 6700 1600
$Comp
L Device:C C5
U 1 1 5E245845
P 10700 1850
F 0 "C5" H 10815 1896 50  0000 L CNN
F 1 "22uF" H 10815 1805 50  0000 L CNN
F 2 "Capacitor_SMD:C_1210_3225Metric_Pad1.42x2.65mm_HandSolder" H 10738 1700 50  0001 C CNN
F 3 "~" H 10700 1850 50  0001 C CNN
	1    10700 1850
	1    0    0    -1  
$EndComp
$Comp
L Device:C C6
U 1 1 5E246C35
P 11150 1850
F 0 "C6" H 11265 1896 50  0000 L CNN
F 1 "22uF" H 11265 1805 50  0000 L CNN
F 2 "Capacitor_SMD:C_1210_3225Metric_Pad1.42x2.65mm_HandSolder" H 11188 1700 50  0001 C CNN
F 3 "~" H 11150 1850 50  0001 C CNN
	1    11150 1850
	1    0    0    -1  
$EndComp
$Comp
L Device:C C7
U 1 1 5E246FCA
P 11600 1850
F 0 "C7" H 11715 1896 50  0000 L CNN
F 1 "22uF" H 11715 1805 50  0000 L CNN
F 2 "Capacitor_SMD:C_1210_3225Metric_Pad1.42x2.65mm_HandSolder" H 11638 1700 50  0001 C CNN
F 3 "~" H 11600 1850 50  0001 C CNN
	1    11600 1850
	1    0    0    -1  
$EndComp
Wire Wire Line
	8700 2150 8700 2000
$Comp
L power:GND #PWR0102
U 1 1 5E24BE81
P 8700 2150
F 0 "#PWR0102" H 8700 1900 50  0001 C CNN
F 1 "GND" H 8705 1977 50  0000 C CNN
F 2 "" H 8700 2150 50  0001 C CNN
F 3 "" H 8700 2150 50  0001 C CNN
	1    8700 2150
	1    0    0    -1  
$EndComp
$Comp
L Device:L L1
U 1 1 5E24AFCB
P 10300 1600
F 0 "L1" V 10490 1600 50  0000 C CNN
F 1 "3.3uH" V 10399 1600 50  0000 C CNN
F 2 "Inductor_SMD:L_Coilcraft_XxL4020" H 10300 1600 50  0001 C CNN
F 3 "~" H 10300 1600 50  0001 C CNN
	1    10300 1600
	0    -1   -1   0   
$EndComp
$Comp
L Device:R R1
U 1 1 5E249391
P 8050 1250
F 0 "R1" H 8120 1296 50  0000 L CNN
F 1 "10k" H 8120 1205 50  0000 L CNN
F 2 "Resistor_SMD:R_0805_2012Metric_Pad1.15x1.40mm_HandSolder" V 7980 1250 50  0001 C CNN
F 3 "~" H 8050 1250 50  0001 C CNN
	1    8050 1250
	1    0    0    -1  
$EndComp
$Comp
L power:+12V #PWR0101
U 1 1 5E248287
P 6700 1400
F 0 "#PWR0101" H 6700 1250 50  0001 C CNN
F 1 "+12V" H 6715 1573 50  0000 C CNN
F 2 "" H 6700 1400 50  0001 C CNN
F 3 "" H 6700 1400 50  0001 C CNN
	1    6700 1400
	1    0    0    -1  
$EndComp
$Comp
L Regulator_Switching:TPS563200 U1
U 1 1 5E23BB0C
P 8700 1700
F 0 "U1" H 8700 2067 50  0000 C CNN
F 1 "TPS563200" H 8700 1976 50  0000 C CNN
F 2 "Package_TO_SOT_SMD:SOT-23-6" H 8750 1450 50  0001 L CNN
F 3 "http://www.ti.com/lit/ds/symlink/tps563200.pdf" H 8700 1700 50  0001 C CNN
	1    8700 1700
	1    0    0    -1  
$EndComp
Text Notes 3800 4550 2    200  ~ 0
Processor
Text Notes 10900 4700 2    200  ~ 0
Motor Controllers
Text Notes 7800 5050 2    100  ~ 0
Right
Text Notes 11550 5050 2    100  ~ 0
Left
$Comp
L power:+12V #PWR0132
U 1 1 5E66AB43
P 2300 1750
F 0 "#PWR0132" H 2300 1600 50  0001 C CNN
F 1 "+12V" H 2315 1923 50  0000 C CNN
F 2 "" H 2300 1750 50  0001 C CNN
F 3 "" H 2300 1750 50  0001 C CNN
	1    2300 1750
	1    0    0    -1  
$EndComp
$Comp
L power:GND #PWR0133
U 1 1 5E66B193
P 2300 2350
F 0 "#PWR0133" H 2300 2100 50  0001 C CNN
F 1 "GND" H 2305 2177 50  0000 C CNN
F 2 "" H 2300 2350 50  0001 C CNN
F 3 "" H 2300 2350 50  0001 C CNN
	1    2300 2350
	1    0    0    -1  
$EndComp
Wire Wire Line
	2150 2000 2300 2000
Wire Wire Line
	2300 2000 2300 1750
Wire Wire Line
	2300 2350 2300 2200
Wire Wire Line
	2300 2200 2150 2200
$Comp
L Connector:Barrel_Jack_Switch J1
U 1 1 5E25440E
P 1850 2100
F 0 "J1" H 1907 2325 50  0000 C CNN
F 1 "Barrel_Jack_Switch" H 1907 2326 50  0001 C CNN
F 2 "PJ-058AH:CUI_PJ-058AH" H 1900 2060 50  0001 C CNN
F 3 "~" H 1900 2060 50  0001 C CNN
	1    1850 2100
	1    0    0    -1  
$EndComp
NoConn ~ 2150 2100
$Comp
L power:+12V #PWR0103
U 1 1 5E2D2055
P 8050 950
F 0 "#PWR0103" H 8050 800 50  0001 C CNN
F 1 "+12V" H 8065 1123 50  0000 C CNN
F 2 "" H 8050 950 50  0001 C CNN
F 3 "" H 8050 950 50  0001 C CNN
	1    8050 950 
	1    0    0    -1  
$EndComp
Text Notes 3900 1750 0    50   ~ 0
To Raspberry Pi
$Comp
L power:+5V #PWR0104
U 1 1 5E2D9335
P 10050 8700
F 0 "#PWR0104" H 10050 8550 50  0001 C CNN
F 1 "+5V" H 10065 8873 50  0000 C CNN
F 2 "" H 10050 8700 50  0001 C CNN
F 3 "" H 10050 8700 50  0001 C CNN
	1    10050 8700
	1    0    0    -1  
$EndComp
$Comp
L Connector:Screw_Terminal_01x03 J8
U 1 1 5E2EB197
P 10850 8950
F 0 "J8" H 10768 8717 50  0000 C CNN
F 1 "Screw_Terminal_01x03" H 10930 8901 50  0001 L CNN
F 2 "TerminalBlock:TerminalBlock_bornier-3_P5.08mm" H 10850 8950 50  0001 C CNN
F 3 "~" H 10850 8950 50  0001 C CNN
	1    10850 8950
	1    0    0    1   
$EndComp
Wire Wire Line
	10050 8850 10550 8850
$Comp
L power:GND #PWR0109
U 1 1 5E303367
P 10550 9350
F 0 "#PWR0109" H 10550 9100 50  0001 C CNN
F 1 "GND" H 10555 9177 50  0000 C CNN
F 2 "" H 10550 9350 50  0001 C CNN
F 3 "" H 10550 9350 50  0001 C CNN
	1    10550 9350
	1    0    0    -1  
$EndComp
$Comp
L power:+5V #PWR0112
U 1 1 5E385934
P 9750 8350
F 0 "#PWR0112" H 9750 8200 50  0001 C CNN
F 1 "+5V" H 9765 8523 50  0000 C CNN
F 2 "" H 9750 8350 50  0001 C CNN
F 3 "" H 9750 8350 50  0001 C CNN
	1    9750 8350
	1    0    0    -1  
$EndComp
$Comp
L Device:R R5
U 1 1 5E3967BC
P 9000 8600
F 0 "R5" H 9100 8650 50  0000 L CNN
F 1 "10k" H 9100 8550 50  0000 L CNN
F 2 "Resistor_SMD:R_0805_2012Metric_Pad1.15x1.40mm_HandSolder" V 8930 8600 50  0001 C CNN
F 3 "~" H 9000 8600 50  0001 C CNN
	1    9000 8600
	1    0    0    -1  
$EndComp
$Comp
L Device:R R10
U 1 1 5E3D9EF5
P 9750 8750
F 0 "R10" V 9850 8700 50  0000 L CNN
F 1 "10k" V 9650 8700 50  0000 L CNN
F 2 "Resistor_SMD:R_0805_2012Metric_Pad1.15x1.40mm_HandSolder" V 9680 8750 50  0001 C CNN
F 3 "~" H 9750 8750 50  0001 C CNN
	1    9750 8750
	1    0    0    -1  
$EndComp
$Comp
L Device:CP C8
U 1 1 5E3E76E3
P 11150 8950
F 0 "C8" H 11268 8996 50  0000 L CNN
F 1 "1000uF" H 11268 8905 50  0000 L CNN
F 2 "Capacitor_THT:CP_Radial_D14.0mm_P5.00mm" H 11188 8800 50  0001 C CNN
F 3 "~" H 11150 8950 50  0001 C CNN
	1    11150 8950
	1    0    0    -1  
$EndComp
Wire Wire Line
	11150 8800 11150 8450
Wire Wire Line
	11150 8450 10550 8450
Wire Wire Line
	10550 8450 10550 8850
Connection ~ 10550 8850
Wire Wire Line
	10550 8850 10650 8850
Wire Wire Line
	10550 9050 10550 9250
Wire Wire Line
	11150 9100 11150 9250
Connection ~ 10550 9250
Wire Wire Line
	10550 9250 10550 9350
$Comp
L Transistor_FET:2N7002 Q1
U 1 1 5E403E13
P 9300 8850
F 0 "Q1" V 9551 8850 50  0000 C CNN
F 1 "2N7002" V 9642 8850 50  0000 C CNN
F 2 "Package_TO_SOT_SMD:SOT-23" H 9500 8775 50  0001 L CIN
F 3 "https://www.fairchildsemi.com/datasheets/2N/2N7002.pdf" H 9300 8850 50  0001 L CNN
	1    9300 8850
	0    1    1    0   
$EndComp
Wire Wire Line
	9750 8350 9750 8600
Wire Wire Line
	9750 8900 9750 8950
Wire Wire Line
	9750 8950 9500 8950
$Comp
L power:VDD #PWR0114
U 1 1 5E43CCB0
P 9000 8200
F 0 "#PWR0114" H 9000 8050 50  0001 C CNN
F 1 "VDD" H 9017 8373 50  0000 C CNN
F 2 "" H 9000 8200 50  0001 C CNN
F 3 "" H 9000 8200 50  0001 C CNN
	1    9000 8200
	1    0    0    -1  
$EndComp
Wire Wire Line
	9300 8650 9300 8300
Wire Wire Line
	9300 8300 9000 8300
Wire Wire Line
	9000 8300 9000 8450
Wire Wire Line
	9000 8300 9000 8200
Connection ~ 9000 8300
Wire Wire Line
	9100 8950 9000 8950
Wire Wire Line
	9000 8750 9000 8950
Wire Wire Line
	8650 8950 9000 8950
Connection ~ 9000 8950
Wire Wire Line
	9750 8950 10650 8950
Connection ~ 9750 8950
Wire Wire Line
	10550 9050 10650 9050
Wire Wire Line
	10550 9250 11150 9250
Wire Wire Line
	2350 5800 2550 5800
NoConn ~ 3550 5500
NoConn ~ 3550 5600
NoConn ~ 3550 5900
NoConn ~ 3550 6200
NoConn ~ 3550 6300
NoConn ~ 3550 6400
NoConn ~ 3550 6700
NoConn ~ 3550 6800
NoConn ~ 2550 6800
NoConn ~ 2550 6400
NoConn ~ 2550 6200
NoConn ~ 2550 5700
NoConn ~ 3550 6100
NoConn ~ 3250 5100
$Comp
L power:+5V #PWR0110
U 1 1 5E2D243B
P 2950 4900
F 0 "#PWR0110" H 2950 4750 50  0001 C CNN
F 1 "+5V" H 2965 5073 50  0000 C CNN
F 2 "" H 2950 4900 50  0001 C CNN
F 3 "" H 2950 4900 50  0001 C CNN
	1    2950 4900
	-1   0    0    -1  
$EndComp
NoConn ~ 2550 5600
NoConn ~ 2550 5500
$EndSCHEMATC
